{
    "Air_6kW": {
        "eta_s": {
            "-20": {
                "30": 0.28,
                "35": null,
                "40": null,
                "45": null,
                "50": null,
                "55": null
            },
            "-15": {
                "30": 0.45,
                "35": 0.39,
                "40": 0.3,
                "45": null,
                "50": null,
                "55": null
            },
            "-7": {
                "30": 0.59,
                "35": 0.56,
                "40": 0.55,
                "45": 0.54,
                "50": 0.55,
                "55": 0.53
            },
            "-2": {
                "30": 0.61,
                "35": 0.62,
                "40": 0.62,
                "45": 0.61,
                "50": 0.63,
                "55": 0.62
            },
            "2": {
                "30": 0.61,
                "35": 0.62,
                "40": 0.62,
                "45": 0.63,
                "50": 0.68,
                "55": 0.67
            },
            "7": {
                "30": 0.69,
                "35": 0.72,
                "40": 0.75,
                "45": 0.76,
                "50": 0.8,
                "55": 0.84
            },
            "12": {
                "30": 0.65,
                "35": 0.69,
                "40": 0.72,
                "45": 0.73,
                "50": 0.77,
                "55": 0.82
            },
            "15": {
                "30": 0.66,
                "35": 0.72,
                "40": 0.74,
                "45": 0.76,
                "50": 0.8,
                "55": 0.85
            },
            "20": {
                "30": 0.64,
                "35": 0.72,
                "40": 0.76,
                "45": 0.79,
                "50": 0.84,
                "55": 0.9
            }
        },
        "heatload": {
            "-20": {
                "30": 3.16,
                "35": 3.11,
                "40": 2.93,
                "45": 2.75,
                "50": 2.71,
                "55": null
            },
            "-15": {
                "30": 4.13,
                "35": 4.01,
                "40": 3.77,
                "45": 3.6,
                "50": 3.54,
                "55": 3.26
            },
            "-7": {
                "30": 5.48,
                "35": 5.34,
                "40": 5.29,
                "45": 5.21,
                "50": 4.99,
                "55": 4.58
            },
            "-2": {
                "30": 6.15,
                "35": 6.08,
                "40": 6.04,
                "45": 5.69,
                "50": 5.58,
                "55": 5.14
            },
            "2": {
                "30": 6.58,
                "35": 6.4,
                "40": 6.19,
                "45": 6.07,
                "50": 5.97,
                "55": 5.49
            },
            "7": {
                "30": 8.48,
                "35": 8.35,
                "40": 8.17,
                "45": 7.95,
                "50": 7.53,
                "55": 7.08
            },
            "12": {
                "30": 9.2,
                "35": 8.97,
                "40": 8.73,
                "45": 8.37,
                "50": 8.01,
                "55": 7.52
            },
            "15": {
                "30": 10.03,
                "35": 9.77,
                "40": 9.46,
                "45": 9.1,
                "50": 8.65,
                "55": 8.14
            },
            "20": {
                "30": 11.51,
                "35": 11.21,
                "40": 10.85,
                "45": 10.44,
                "50": 9.89,
                "55": 9.31
            }
        },
        "ids": {
            "-20": {
                "30": 1,
                "35": 2,
                "40": 3,
                "45": 4,
                "50": 5,
                "55": 6
            },
            "-15": {
                "30": 7,
                "35": 8,
                "40": 9,
                "45": 10,
                "50": 11,
                "55": 12
            },
            "-7": {
                "30": 13,
                "35": 14,
                "40": 15,
                "45": 16,
                "50": 17,
                "55": 18
            },
            "-2": {
                "30": 19,
                "35": 20,
                "40": 21,
                "45": 22,
                "50": 23,
                "55": 24
            },
            "2": {
                "30": 25,
                "35": 26,
                "40": 27,
                "45": 28,
                "50": 29,
                "55": 30
            },
            "7": {
                "30": 31,
                "35": 32,
                "40": 33,
                "45": 34,
                "50": 35,
                "55": 36
            },
            "12": {
                "30": 37,
                "35": 38,
                "40": 39,
                "45": 40,
                "50": 41,
                "55": 42
            },
            "15": {
                "30": 43,
                "35": 44,
                "40": 45,
                "45": 46,
                "50": 47,
                "55": 48
            },
            "20": {
                "30": 49,
                "35": 50,
                "40": 51,
                "45": 52,
                "50": 53,
                "55": 54
            }
        },
        "min_heatload": 1800,
        "max_heatload": 11510.0
    },
    "Air_8kW": {
        "eta_s": {
            "-20": {
                "30": null,
                "35": null,
                "40": null,
                "45": null,
                "50": null,
                "55": null
            },
            "-15": {
                "30": 0.39,
                "35": 0.34,
                "40": null,
                "45": null,
                "50": null,
                "55": null
            },
            "-7": {
                "30": 0.54,
                "35": 0.5,
                "40": 0.49,
                "45": 0.48,
                "50": 0.49,
                "55": 0.46
            },
            "-2": {
                "30": 0.57,
                "35": 0.57,
                "40": 0.57,
                "45": 0.54,
                "50": 0.57,
                "55": 0.55
            },
            "2": {
                "30": 0.57,
                "35": 0.58,
                "40": 0.57,
                "45": 0.58,
                "50": 0.62,
                "55": 0.6
            },
            "7": {
                "30": 0.64,
                "35": 0.67,
                "40": 0.69,
                "45": 0.7,
                "50": 0.73,
                "55": 0.77
            },
            "12": {
                "30": 0.61,
                "35": 0.65,
                "40": 0.67,
                "45": 0.68,
                "50": 0.71,
                "55": 0.75
            },
            "15": {
                "30": 0.62,
                "35": 0.67,
                "40": 0.69,
                "45": 0.7,
                "50": 0.74,
                "55": 0.78
            },
            "20": {
                "30": 0.6,
                "35": 0.68,
                "40": 0.71,
                "45": 0.74,
                "50": 0.78,
                "55": 0.83
            }
        },
        "heatload": {
            "-20": {
                "30": 3.79,
                "35": 3.73,
                "40": 3.51,
                "45": 3.29,
                "50": 3.25,
                "55": null
            },
            "-15": {
                "30": 4.96,
                "35": 4.81,
                "40": 4.52,
                "45": 4.33,
                "50": 4.24,
                "55": 3.92
            },
            "-7": {
                "30": 6.57,
                "35": 6.41,
                "40": 6.35,
                "45": 6.25,
                "50": 5.99,
                "55": 5.5
            },
            "-2": {
                "30": 7.38,
                "35": 7.29,
                "40": 7.25,
                "45": 6.82,
                "50": 6.7,
                "55": 6.16
            },
            "2": {
                "30": 7.9,
                "35": 7.68,
                "40": 7.43,
                "45": 7.28,
                "50": 7.16,
                "55": 6.59
            },
            "7": {
                "30": 10.17,
                "35": 10.02,
                "40": 9.81,
                "45": 9.53,
                "50": 9.04,
                "55": 8.5
            },
            "12": {
                "30": 11.04,
                "35": 10.76,
                "40": 10.48,
                "45": 10.05,
                "50": 9.61,
                "55": 9.03
            },
            "15": {
                "30": 12.04,
                "35": 11.72,
                "40": 11.35,
                "45": 10.92,
                "50": 10.38,
                "55": 9.76
            },
            "20": {
                "30": 13.81,
                "35": 13.46,
                "40": 13.01,
                "45": 12.52,
                "50": 11.87,
                "55": 11.17
            }
        },
        "ids": {
            "-20": {
                "30": 1,
                "35": 2,
                "40": 3,
                "45": 4,
                "50": 5,
                "55": 6
            },
            "-15": {
                "30": 7,
                "35": 8,
                "40": 9,
                "45": 10,
                "50": 11,
                "55": 12
            },
            "-7": {
                "30": 13,
                "35": 14,
                "40": 15,
                "45": 16,
                "50": 17,
                "55": 18
            },
            "-2": {
                "30": 19,
                "35": 20,
                "40": 21,
                "45": 22,
                "50": 23,
                "55": 24
            },
            "2": {
                "30": 25,
                "35": 26,
                "40": 27,
                "45": 28,
                "50": 29,
                "55": 30
            },
            "7": {
                "30": 31,
                "35": 32,
                "40": 33,
                "45": 34,
                "50": 35,
                "55": 36
            },
            "12": {
                "30": 37,
                "35": 38,
                "40": 39,
                "45": 40,
                "50": 41,
                "55": 42
            },
            "15": {
                "30": 43,
                "35": 44,
                "40": 45,
                "45": 46,
                "50": 47,
                "55": 48
            },
            "20": {
                "30": 49,
                "35": 50,
                "40": 51,
                "45": 52,
                "50": 53,
                "55": 54
            }
        },
        "min_heatload": 1800,
        "max_heatload": 13810.0
    },
    "Air_16kW": {
        "eta_s": {
            "-20": {
                "30": 0.32,
                "35": 0.31,
                "40": null,
                "45": null,
                "50": null,
                "55": null
            },
            "-15": {
                "30": 0.33,
                "35": 0.32,
                "40": 0.31,
                "45": 0.32,
                "50": null,
                "55": null
            },
            "-7": {
                "30": 0.5,
                "35": 0.48,
                "40": 0.46,
                "45": 0.42,
                "50": 0.39,
                "55": 0.38
            },
            "-2": {
                "30": 0.53,
                "35": 0.52,
                "40": 0.49,
                "45": 0.48,
                "50": 0.45,
                "55": 0.45
            },
            "2": {
                "30": 0.56,
                "35": 0.55,
                "40": 0.53,
                "45": 0.58,
                "50": 0.52,
                "55": 0.52
            },
            "7": {
                "30": 0.84,
                "35": 0.86,
                "40": 0.83,
                "45": 0.84,
                "50": 0.83,
                "55": 0.88
            },
            "12": {
                "30": 0.78,
                "35": 0.8,
                "40": 0.8,
                "45": 0.81,
                "50": 0.81,
                "55": 0.87
            },
            "15": {
                "30": 0.78,
                "35": 0.8,
                "40": 0.81,
                "45": 0.83,
                "50": 0.84,
                "55": 0.91
            },
            "20": {
                "30": 0.77,
                "35": 0.81,
                "40": 0.83,
                "45": 0.86,
                "50": 0.89,
                "55": 0.98
            }
        },
        "heatload": {
            "-20": {
                "30": 9.56,
                "35": 9.66,
                "40": 9.59,
                "45": 7.69,
                "50": null,
                "55": null
            },
            "-15": {
                "30": 10.57,
                "35": 10.56,
                "40": 9.86,
                "45": 9.55,
                "50": 8.79,
                "55": null
            },
            "-7": {
                "30": 12.59,
                "35": 12.3,
                "40": 12.02,
                "45": 11.35,
                "50": 10.26,
                "55": 9.18
            },
            "-2": {
                "30": 12.11,
                "35": 11.79,
                "40": 11.48,
                "45": 11.39,
                "50": 10.44,
                "55": 9.32
            },
            "2": {
                "30": 11.74,
                "35": 11.4,
                "40": 11.07,
                "45": 11.37,
                "50": 11.04,
                "55": 10.29
            },
            "7": {
                "30": 16.63,
                "35": 16.1,
                "40": 15.47,
                "45": 15.22,
                "50": 14.51,
                "55": 13.92
            },
            "12": {
                "30": 17.34,
                "35": 16.74,
                "40": 16.13,
                "45": 15.76,
                "50": 15.13,
                "55": 14.51
            },
            "15": {
                "30": 18.81,
                "35": 18.16,
                "40": 17.51,
                "45": 17.1,
                "50": 16.43,
                "55": 15.75
            },
            "20": {
                "30": 21.49,
                "35": 20.77,
                "40": 20.04,
                "45": 19.59,
                "50": 18.83,
                "55": 18.07
            }
        },
        "ids": {
            "-20": {
                "30": 1,
                "35": 2,
                "40": 3,
                "45": 4,
                "50": 5,
                "55": 6
            },
            "-15": {
                "30": 7,
                "35": 8,
                "40": 9,
                "45": 10,
                "50": 11,
                "55": 12
            },
            "-7": {
                "30": 13,
                "35": 14,
                "40": 15,
                "45": 16,
                "50": 17,
                "55": 18
            },
            "-2": {
                "30": 19,
                "35": 20,
                "40": 21,
                "45": 22,
                "50": 23,
                "55": 24
            },
            "2": {
                "30": 25,
                "35": 26,
                "40": 27,
                "45": 28,
                "50": 29,
                "55": 30
            },
            "7": {
                "30": 31,
                "35": 32,
                "40": 33,
                "45": 34,
                "50": 35,
                "55": 36
            },
            "12": {
                "30": 37,
                "35": 38,
                "40": 39,
                "45": 40,
                "50": 41,
                "55": 42
            },
            "15": {
                "30": 43,
                "35": 44,
                "40": 45,
                "45": 46,
                "50": 47,
                "55": 48
            },
            "20": {
                "30": 49,
                "35": 50,
                "40": 51,
                "45": 52,
                "50": 53,
                "55": 54
            }
        },
        "min_heatload": 5000,
        "max_heatload": 21490.0
    },
    "Air_60kW": {
        "eta_s": {
            "-20": {
                "35": 0.66,
                "45": 0.66,
                "55": 0.71
            },
            "-15": {
                "35": 0.71,
                "45": 0.73,
                "55": 0.75
            },
            "-7": {
                "35": 0.77,
                "45": 0.78,
                "55": 0.86
            },
            "2": {
                "35": 0.8,
                "45": 0.8,
                "55": 0.84
            },
            "7": {
                "35": 0.81,
                "45": 0.83,
                "55": 0.84
            },
            "10": {
                "35": 0.77,
                "45": 0.83,
                "55": 0.88
            },
            "12": {
                "35": 0.71,
                "45": 0.79,
                "55": 0.87
            },
            "20": {
                "35": 0.66,
                "45": 0.76,
                "55": 0.84
            }
        },
        "heatload": {
            "-20": {
                "35": 23.5,
                "45": 22.51,
                "55": 21.5
            },
            "-15": {
                "35": 29.34,
                "45": 27.76,
                "55": 26.71
            },
            "-7": {
                "35": 39.2,
                "45": 36.4,
                "55": 34.3
            },
            "2": {
                "35": 50.0,
                "45": 47.32,
                "55": 46.07
            },
            "7": {
                "35": 60.1,
                "45": 57.0,
                "55": 55.0
            },
            "10": {
                "35": 64.6,
                "45": 61.8,
                "55": 60.5
            },
            "12": {
                "35": 66.0,
                "45": 65.0,
                "55": 63.0
            },
            "20": {
                "35": 80.68,
                "45": 78.6,
                "55": 76.33
            }
        },
        "ids": {
            "-20": {
                "35": 1,
                "45": 2,
                "55": 3
            },
            "-15": {
                "35": 4,
                "45": 5,
                "55": 6
            },
            "-7": {
                "35": 7,
                "45": 8,
                "55": 9
            },
            "2": {
                "35": 10,
                "45": 11,
                "55": 12
            },
            "7": {
                "35": 13,
                "45": 14,
                "55": 15
            },
            "10": {
                "35": 16,
                "45": 17,
                "55": 18
            },
            "12": {
                "35": 19,
                "45": 20,
                "55": 21
            },
            "20": {
                "35": 22,
                "45": 23,
                "55": 24
            }
        },
        "min_heatload": 21500,
        "max_heatload": 80680.0
    },
    "Air_30kW": {
        "eta_s": {
            "-20": {
                "15": 0.55,
                "20": 0.56,
                "25": 0.56,
                "30": 0.55,
                "35": 0.42,
                "40": 0.45,
                "45": 0.35,
                "50": null,
                "55": null,
                "60": null
            },
            "-15": {
                "15": 0.54,
                "20": 0.56,
                "25": 0.58,
                "30": 0.58,
                "35": 0.52,
                "40": 0.54,
                "45": 0.48,
                "50": null,
                "55": null,
                "60": null
            },
            "-12": {
                "15": 0.54,
                "20": 0.56,
                "25": 0.58,
                "30": 0.59,
                "35": 0.56,
                "40": 0.57,
                "45": 0.54,
                "50": null,
                "55": null,
                "60": null
            },
            "-10": {
                "15": 0.53,
                "20": 0.56,
                "25": 0.58,
                "30": 0.6,
                "35": 0.58,
                "40": 0.59,
                "45": 0.57,
                "50": 0.52,
                "55": null,
                "60": null
            },
            "-7": {
                "15": 0.51,
                "20": 0.54,
                "25": 0.58,
                "30": 0.6,
                "35": 0.61,
                "40": 0.62,
                "45": 0.61,
                "50": 0.58,
                "55": 0.61,
                "60": null
            },
            "-2": {
                "15": 0.47,
                "20": 0.52,
                "25": 0.56,
                "30": 0.59,
                "35": 0.63,
                "40": 0.64,
                "45": 0.65,
                "50": 0.65,
                "55": 0.67,
                "60": 0.59
            },
            "2": {
                "15": 0.44,
                "20": 0.49,
                "25": 0.53,
                "30": 0.58,
                "35": 0.63,
                "40": 0.65,
                "45": 0.67,
                "50": 0.69,
                "55": 0.69,
                "60": 0.69
            },
            "7": {
                "15": 0.41,
                "20": 0.45,
                "25": 0.5,
                "30": 0.55,
                "35": 0.63,
                "40": 0.64,
                "45": 0.68,
                "50": 0.71,
                "55": 0.77,
                "60": 0.78
            },
            "10": {
                "15": 0.4,
                "20": 0.43,
                "25": 0.48,
                "30": 0.53,
                "35": 0.65,
                "40": 0.63,
                "45": 0.67,
                "50": 0.72,
                "55": 0.77,
                "60": 0.81
            },
            "12": {
                "15": 0.43,
                "20": 0.41,
                "25": 0.46,
                "30": 0.51,
                "35": 0.62,
                "40": 0.62,
                "45": 0.67,
                "50": 0.72,
                "55": 0.8,
                "60": 0.83
            },
            "15": {
                "15": null,
                "20": 0.41,
                "25": 0.44,
                "30": 0.49,
                "35": 0.59,
                "40": 0.6,
                "45": 0.65,
                "50": 0.71,
                "55": 0.79,
                "60": 0.85
            },
            "20": {
                "15": null,
                "20": null,
                "25": 0.42,
                "30": 0.45,
                "35": 0.53,
                "40": 0.56,
                "45": 0.62,
                "50": 0.69,
                "55": 0.74,
                "60": 0.86
            },
            "25": {
                "15": null,
                "20": null,
                "25": null,
                "30": 0.42,
                "35": 0.45,
                "40": 0.52,
                "45": 0.58,
                "50": 0.66,
                "55": 0.68,
                "60": 0.84
            },
            "30": {
                "15": null,
                "20": null,
                "25": null,
                "30": null,
                "35": 0.37,
                "40": 0.47,
                "45": 0.54,
                "50": 0.61,
                "55": 0.62,
                "60": 0.81
            },
            "35": {
                "15": null,
                "20": null,
                "25": null,
                "30": null,
                "35": null,
                "40": 0.45,
                "45": 0.49,
                "50": 0.56,
                "55": 0.56,
                "60": 0.77
            }
        },
        "heatload": {
            "-20": {
                "15": 15.8,
                "20": 15.8,
                "25": 15.8,
                "30": 15.8,
                "35": 15.8,
                "40": 15.8,
                "45": 15.8,
                "50": null,
                "55": null,
                "60": null
            },
            "-15": {
                "15": 19.0,
                "20": 19.0,
                "25": 19.0,
                "30": 19.0,
                "35": 19.0,
                "40": 19.0,
                "45": 19.0,
                "50": null,
                "55": null,
                "60": null
            },
            "-12": {
                "15": 21.0,
                "20": 21.0,
                "25": 21.0,
                "30": 21.0,
                "35": 21.0,
                "40": 21.0,
                "45": 21.0,
                "50": null,
                "55": null,
                "60": null
            },
            "-10": {
                "15": 22.3,
                "20": 22.3,
                "25": 22.3,
                "30": 22.3,
                "35": 22.3,
                "40": 22.3,
                "45": 22.3,
                "50": 22.3,
                "55": null,
                "60": null
            },
            "-7": {
                "15": 24.28,
                "20": 24.28,
                "25": 24.28,
                "30": 24.28,
                "35": 24.28,
                "40": 24.28,
                "45": 24.28,
                "50": 24.28,
                "55": 24.28,
                "60": null
            },
            "-2": {
                "15": 27.1,
                "20": 27.1,
                "25": 27.1,
                "30": 27.1,
                "35": 27.2,
                "40": 27.1,
                "45": 27.1,
                "50": 27.1,
                "55": 27.0,
                "60": 27.1
            },
            "2": {
                "15": 29.39,
                "20": 29.39,
                "25": 29.39,
                "30": 29.39,
                "35": 29.67,
                "40": 29.39,
                "45": 29.39,
                "50": 29.39,
                "55": 29.1,
                "60": 29.39
            },
            "7": {
                "15": 33.25,
                "20": 33.25,
                "25": 33.25,
                "30": 33.25,
                "35": 32.5,
                "40": 33.25,
                "45": 33.25,
                "50": 33.25,
                "55": 34.0,
                "60": 33.25
            },
            "10": {
                "15": 38.47,
                "20": 38.47,
                "25": 38.47,
                "30": 38.47,
                "35": 39.43,
                "40": 38.47,
                "45": 38.47,
                "50": 38.47,
                "55": 37.5,
                "60": 38.47
            },
            "12": {
                "15": 40.5,
                "20": 40.5,
                "25": 40.5,
                "30": 40.5,
                "35": 40.5,
                "40": 40.5,
                "45": 40.5,
                "50": 40.5,
                "55": 40.5,
                "60": 40.5
            },
            "15": {
                "15": null,
                "20": 42.4,
                "25": 42.4,
                "30": 42.4,
                "35": 42.4,
                "40": 42.4,
                "45": 42.4,
                "50": 42.4,
                "55": 42.4,
                "60": 42.4
            },
            "20": {
                "15": null,
                "20": null,
                "25": 45.1,
                "30": 45.1,
                "35": 45.1,
                "40": 45.1,
                "45": 45.1,
                "50": 45.1,
                "55": 45.1,
                "60": 45.1
            },
            "25": {
                "15": null,
                "20": null,
                "25": null,
                "30": 48.0,
                "35": 48.0,
                "40": 48.0,
                "45": 48.0,
                "50": 48.0,
                "55": 48.0,
                "60": 48.0
            },
            "30": {
                "15": null,
                "20": null,
                "25": null,
                "30": null,
                "35": 51.0,
                "40": 51.0,
                "45": 51.0,
                "50": 51.0,
                "55": 51.0,
                "60": 51.0
            },
            "35": {
                "15": null,
                "20": null,
                "25": null,
                "30": null,
                "35": null,
                "40": 54.0,
                "45": 54.0,
                "50": 54.0,
                "55": 54.0,
                "60": 54.0
            }
        },
        "ids": {
            "-20": {
                "15": 1,
                "20": 2,
                "25": 3,
                "30": 4,
                "35": 5,
                "40": 6,
                "45": 7,
                "50": 8,
                "55": 9,
                "60": 10
            },
            "-15": {
                "15": 11,
                "20": 12,
                "25": 13,
                "30": 14,
                "35": 15,
                "40": 16,
                "45": 17,
                "50": 18,
                "55": 19,
                "60": 20
            },
            "-12": {
                "15": 21,
                "20": 22,
                "25": 23,
                "30": 24,
                "35": 25,
                "40": 26,
                "45": 27,
                "50": 28,
                "55": 29,
                "60": 30
            },
            "-10": {
                "15": 31,
                "20": 32,
                "25": 33,
                "30": 34,
                "35": 35,
                "40": 36,
                "45": 37,
                "50": 38,
                "55": 39,
                "60": 40
            },
            "-7": {
                "15": 41,
                "20": 42,
                "25": 43,
                "30": 44,
                "35": 45,
                "40": 46,
                "45": 47,
                "50": 48,
                "55": 49,
                "60": 50
            },
            "-2": {
                "15": 51,
                "20": 52,
                "25": 53,
                "30": 54,
                "35": 55,
                "40": 56,
                "45": 57,
                "50": 58,
                "55": 59,
                "60": 60
            },
            "2": {
                "15": 61,
                "20": 62,
                "25": 63,
                "30": 64,
                "35": 65,
                "40": 66,
                "45": 67,
                "50": 68,
                "55": 69,
                "60": 70
            },
            "7": {
                "15": 71,
                "20": 72,
                "25": 73,
                "30": 74,
                "35": 75,
                "40": 76,
                "45": 77,
                "50": 78,
                "55": 79,
                "60": 80
            },
            "10": {
                "15": 81,
                "20": 82,
                "25": 83,
                "30": 84,
                "35": 85,
                "40": 86,
                "45": 87,
                "50": 88,
                "55": 89,
                "60": 90
            },
            "12": {
                "15": 91,
                "20": 92,
                "25": 93,
                "30": 94,
                "35": 95,
                "40": 96,
                "45": 97,
                "50": 98,
                "55": 99,
                "60": 100
            },
            "15": {
                "15": 101,
                "20": 102,
                "25": 103,
                "30": 104,
                "35": 105,
                "40": 106,
                "45": 107,
                "50": 108,
                "55": 109,
                "60": 110
            },
            "20": {
                "15": 111,
                "20": 112,
                "25": 113,
                "30": 114,
                "35": 115,
                "40": 116,
                "45": 117,
                "50": 118,
                "55": 119,
                "60": 120
            },
            "25": {
                "15": 121,
                "20": 122,
                "25": 123,
                "30": 124,
                "35": 125,
                "40": 126,
                "45": 127,
                "50": 128,
                "55": 129,
                "60": 130
            },
            "30": {
                "15": 131,
                "20": 132,
                "25": 133,
                "30": 134,
                "35": 135,
                "40": 136,
                "45": 137,
                "50": 138,
                "55": 139,
                "60": 140
            },
            "35": {
                "15": 141,
                "20": 142,
                "25": 143,
                "30": 144,
                "35": 145,
                "40": 146,
                "45": 147,
                "50": 148,
                "55": 149,
                "60": 150
            }
        },
        "min_heatload": 15800,
        "max_heatload": 54000.0
    },
    "Air_30kW_1stage": {
        "eta_s": {
            "-20": {
                "15": 0.56,
                "20": 0.57,
                "25": 0.58,
                "30": 0.57,
                "35": 0.29,
                "40": 0.39,
                "45": 0.29,
                "50": null,
                "55": null,
                "60": null
            },
            "-15": {
                "15": 0.57,
                "20": 0.59,
                "25": 0.6,
                "30": 0.61,
                "35": 0.48,
                "40": 0.51,
                "45": 0.46,
                "50": null,
                "55": null,
                "60": null
            },
            "-12": {
                "15": 0.57,
                "20": 0.59,
                "25": 0.61,
                "30": 0.62,
                "35": 0.57,
                "40": 0.58,
                "45": 0.53,
                "50": null,
                "55": null,
                "60": null
            },
            "-10": {
                "15": 0.56,
                "20": 0.59,
                "25": 0.61,
                "30": 0.62,
                "35": 0.57,
                "40": 0.59,
                "45": 0.57,
                "50": 0.49,
                "55": null,
                "60": null
            },
            "-7": {
                "15": 0.56,
                "20": 0.59,
                "25": 0.61,
                "30": 0.63,
                "35": 0.6,
                "40": 0.63,
                "45": 0.62,
                "50": 0.57,
                "55": 0.62,
                "60": null
            },
            "-2": {
                "15": 0.54,
                "20": 0.57,
                "25": 0.6,
                "30": 0.63,
                "35": 0.62,
                "40": 0.67,
                "45": 0.68,
                "50": 0.67,
                "55": 0.69,
                "60": 0.54
            },
            "2": {
                "15": 0.54,
                "20": 0.55,
                "25": 0.59,
                "30": 0.62,
                "35": 0.64,
                "40": 0.68,
                "45": 0.7,
                "50": 0.71,
                "55": 0.74,
                "60": 0.68
            },
            "7": {
                "15": 0.52,
                "20": 0.53,
                "25": 0.56,
                "30": 0.61,
                "35": 0.65,
                "40": 0.69,
                "45": 0.72,
                "50": 0.74,
                "55": 0.85,
                "60": 0.8
            },
            "10": {
                "15": 0.54,
                "20": 0.53,
                "25": 0.54,
                "30": 0.59,
                "35": 0.7,
                "40": 0.69,
                "45": 0.72,
                "50": 0.76,
                "55": 0.88,
                "60": 0.85
            },
            "12": {
                "15": 0.6,
                "20": 0.53,
                "25": 0.54,
                "30": 0.58,
                "35": 0.7,
                "40": 0.69,
                "45": 0.72,
                "50": 0.76,
                "55": 0.89,
                "60": 0.88
            },
            "15": {
                "15": null,
                "20": 0.54,
                "25": 0.53,
                "30": 0.56,
                "35": 0.68,
                "40": 0.67,
                "45": 0.71,
                "50": 0.77,
                "55": 0.88,
                "60": 0.89
            },
            "20": {
                "15": null,
                "20": null,
                "25": 0.55,
                "30": 0.54,
                "35": 0.61,
                "40": 0.63,
                "45": 0.69,
                "50": 0.75,
                "55": 0.85,
                "60": 0.92
            },
            "25": {
                "15": null,
                "20": null,
                "25": null,
                "30": 0.56,
                "35": 0.55,
                "40": 0.59,
                "45": 0.66,
                "50": 0.73,
                "55": 0.8,
                "60": 0.92
            },
            "30": {
                "15": null,
                "20": null,
                "25": null,
                "30": null,
                "35": 0.45,
                "40": 0.56,
                "45": 0.62,
                "50": 0.69,
                "55": 0.73,
                "60": 0.9
            },
            "35": {
                "15": null,
                "20": null,
                "25": null,
                "30": null,
                "35": null,
                "40": 0.58,
                "45": 0.59,
                "50": 0.65,
                "55": 0.66,
                "60": 0.86
            }
        },
        "heatload": {
            "-20": {
                "15": 7.3,
                "20": 7.3,
                "25": 7.3,
                "30": 7.3,
                "35": 7.3,
                "40": 7.3,
                "45": 7.3,
                "50": null,
                "55": null,
                "60": null
            },
            "-15": {
                "15": 9.5,
                "20": 9.5,
                "25": 9.5,
                "30": 9.5,
                "35": 9.5,
                "40": 9.5,
                "45": 9.5,
                "50": null,
                "55": null,
                "60": null
            },
            "-12": {
                "15": 11.0,
                "20": 11.0,
                "25": 11.0,
                "30": 11.0,
                "35": 11.0,
                "40": 11.0,
                "45": 11.0,
                "50": null,
                "55": null,
                "60": null
            },
            "-10": {
                "15": 12.0,
                "20": 12.0,
                "25": 12.0,
                "30": 12.0,
                "35": 12.0,
                "40": 12.0,
                "45": 12.0,
                "50": 12.0,
                "55": null,
                "60": null
            },
            "-7": {
                "15": 13.13,
                "20": 13.13,
                "25": 13.13,
                "30": 13.13,
                "35": 13.45,
                "40": 13.13,
                "45": 13.13,
                "50": 13.13,
                "55": 12.8,
                "60": null
            },
            "-2": {
                "15": 14.75,
                "20": 14.75,
                "25": 14.75,
                "30": 14.75,
                "35": 15.3,
                "40": 14.75,
                "45": 14.75,
                "50": 14.75,
                "55": 14.2,
                "60": 14.75
            },
            "2": {
                "15": 16.34,
                "20": 16.34,
                "25": 16.34,
                "30": 16.34,
                "35": 16.97,
                "40": 16.34,
                "45": 16.34,
                "50": 16.34,
                "55": 15.7,
                "60": 16.34
            },
            "7": {
                "15": 19.39,
                "20": 19.39,
                "25": 19.39,
                "30": 19.39,
                "35": 19.78,
                "40": 19.39,
                "45": 19.39,
                "50": 19.39,
                "55": 19.0,
                "60": 19.39
            },
            "10": {
                "15": 21.5,
                "20": 21.5,
                "25": 21.5,
                "30": 21.5,
                "35": 22.0,
                "40": 21.5,
                "45": 21.5,
                "50": 21.5,
                "55": 21.0,
                "60": 21.5
            },
            "12": {
                "15": 22.6,
                "20": 22.6,
                "25": 22.6,
                "30": 22.6,
                "35": 23.1,
                "40": 22.6,
                "45": 22.6,
                "50": 22.6,
                "55": 22.1,
                "60": 22.6
            },
            "15": {
                "15": null,
                "20": 23.75,
                "25": 23.75,
                "30": 23.75,
                "35": 24.3,
                "40": 23.75,
                "45": 23.75,
                "50": 23.75,
                "55": 23.2,
                "60": 23.75
            },
            "20": {
                "15": null,
                "20": null,
                "25": 25.5,
                "30": 25.5,
                "35": 26.0,
                "40": 25.5,
                "45": 25.5,
                "50": 25.5,
                "55": 25.0,
                "60": 25.5
            },
            "25": {
                "15": null,
                "20": null,
                "25": null,
                "30": 27.4,
                "35": 28.0,
                "40": 27.4,
                "45": 27.4,
                "50": 27.4,
                "55": 26.8,
                "60": 27.4
            },
            "30": {
                "15": null,
                "20": null,
                "25": null,
                "30": null,
                "35": 29.9,
                "40": 29.15,
                "45": 29.15,
                "50": 29.15,
                "55": 28.4,
                "60": 29.15
            },
            "35": {
                "15": null,
                "20": null,
                "25": null,
                "30": null,
                "35": null,
                "40": 30.95,
                "45": 30.95,
                "50": 30.95,
                "55": 30.0,
                "60": 30.95
            }
        },
        "ids": {
            "-20": {
                "15": 1,
                "20": 2,
                "25": 3,
                "30": 4,
                "35": 5,
                "40": 6,
                "45": 7,
                "50": 8,
                "55": 9,
                "60": 10
            },
            "-15": {
                "15": 11,
                "20": 12,
                "25": 13,
                "30": 14,
                "35": 15,
                "40": 16,
                "45": 17,
                "50": 18,
                "55": 19,
                "60": 20
            },
            "-12": {
                "15": 21,
                "20": 22,
                "25": 23,
                "30": 24,
                "35": 25,
                "40": 26,
                "45": 27,
                "50": 28,
                "55": 29,
                "60": 30
            },
            "-10": {
                "15": 31,
                "20": 32,
                "25": 33,
                "30": 34,
                "35": 35,
                "40": 36,
                "45": 37,
                "50": 38,
                "55": 39,
                "60": 40
            },
            "-7": {
                "15": 41,
                "20": 42,
                "25": 43,
                "30": 44,
                "35": 45,
                "40": 46,
                "45": 47,
                "50": 48,
                "55": 49,
                "60": 50
            },
            "-2": {
                "15": 51,
                "20": 52,
                "25": 53,
                "30": 54,
                "35": 55,
                "40": 56,
                "45": 57,
                "50": 58,
                "55": 59,
                "60": 60
            },
            "2": {
                "15": 61,
                "20": 62,
                "25": 63,
                "30": 64,
                "35": 65,
                "40": 66,
                "45": 67,
                "50": 68,
                "55": 69,
                "60": 70
            },
            "7": {
                "15": 71,
                "20": 72,
                "25": 73,
                "30": 74,
                "35": 75,
                "40": 76,
                "45": 77,
                "50": 78,
                "55": 79,
                "60": 80
            },
            "10": {
                "15": 81,
                "20": 82,
                "25": 83,
                "30": 84,
                "35": 85,
                "40": 86,
                "45": 87,
                "50": 88,
                "55": 89,
                "60": 90
            },
            "12": {
                "15": 91,
                "20": 92,
                "25": 93,
                "30": 94,
                "35": 95,
                "40": 96,
                "45": 97,
                "50": 98,
                "55": 99,
                "60": 100
            },
            "15": {
                "15": 101,
                "20": 102,
                "25": 103,
                "30": 104,
                "35": 105,
                "40": 106,
                "45": 107,
                "50": 108,
                "55": 109,
                "60": 110
            },
            "20": {
                "15": 111,
                "20": 112,
                "25": 113,
                "30": 114,
                "35": 115,
                "40": 116,
                "45": 117,
                "50": 118,
                "55": 119,
                "60": 120
            },
            "25": {
                "15": 121,
                "20": 122,
                "25": 123,
                "30": 124,
                "35": 125,
                "40": 126,
                "45": 127,
                "50": 128,
                "55": 129,
                "60": 130
            },
            "30": {
                "15": 131,
                "20": 132,
                "25": 133,
                "30": 134,
                "35": 135,
                "40": 136,
                "45": 137,
                "50": 138,
                "55": 139,
                "60": 140
            },
            "35": {
                "15": 141,
                "20": 142,
                "25": 143,
                "30": 144,
                "35": 145,
                "40": 146,
                "45": 147,
                "50": 148,
                "55": 149,
                "60": 150
            }
        },
        "min_heatload": 7300.0,
        "max_heatload": 30950.0
    }
}